<?xml version="1.0" encoding="UTF-8" standalone="no"?>
<!-- Created with Inkscape (http://www.inkscape.org/) -->

<svg
   xmlns:dc="http://purl.org/dc/elements/1.1/"
   xmlns:cc="http://creativecommons.org/ns#"
   xmlns:rdf="http://www.w3.org/1999/02/22-rdf-syntax-ns#"
   xmlns:svg="http://www.w3.org/2000/svg"
   xmlns="http://www.w3.org/2000/svg"
   xmlns:sodipodi="http://sodipodi.sourceforge.net/DTD/sodipodi-0.dtd"
   xmlns:inkscape="http://www.inkscape.org/namespaces/inkscape"
   width="50mm"
   height="50mm"
   viewBox="0 0 50 50"
   version="1.1"
   id="svg8"
   inkscape:version="0.92.3 (2405546, 2018-03-11)"
   sodipodi:docname="play_start.svg">
  <title
     id="title6245">play start</title>
  <defs
     id="defs2">
    <inkscape:path-effect
       effect="show_handles"
       id="path-effect6227"
       is_visible="true"
       nodes="true"
       handles="true"
       original_path="true"
       scale_nodes_and_handles="10" />
    <inkscape:path-effect
       effect="bspline"
       id="path-effect6204"
       is_visible="true"
       weight="33.333333"
       steps="2"
       helper_size="0"
       apply_no_weight="true"
       apply_with_weight="true"
       only_selected="false" />
    <inkscape:path-effect
       effect="bspline"
       id="path-effect6200"
       is_visible="true"
       weight="33.333333"
       steps="2"
       helper_size="0"
       apply_no_weight="true"
       apply_with_weight="true"
       only_selected="false" />
    <inkscape:path-effect
       effect="join_type"
       id="path-effect6187"
       is_visible="true"
       linecap_type="square"
       line_width="0.26458332"
       linejoin_type="round"
       miter_limit="600"
       attempt_force_join="true" />
    <inkscape:path-effect
       effect="bend_path"
       id="path-effect6185"
       is_visible="true"
       bendpath="M 9.0000652,271.97403 H 42.009195"
       prop_scale="1"
       scale_y_rel="false"
       vertical="false" />
    <inkscape:path-effect
       effect="bspline"
       id="path-effect4933"
       is_visible="true"
       weight="33.333333"
       steps="2"
       helper_size="0"
       apply_no_weight="true"
       apply_with_weight="true"
       only_selected="false" />
    <inkscape:path-effect
       effect="taper_stroke"
       id="path-effect4774"
       is_visible="true"
       stroke_width="0.0092609897"
       attach_start="0.2"
       end_offset="0.2"
       smoothing="0.5"
       jointype="bevel"
       miter_limit="100" />
    <inkscape:path-effect
       effect="bend_path"
       id="path-effect4772"
       is_visible="true"
       bendpath="m 18.402158,279.91153 23.647692,-7.9375"
       prop_scale="0.73184827"
       scale_y_rel="false"
       vertical="false"
       bendpath-nodetypes="cc" />
    <inkscape:path-effect
       effect="join_type"
       id="path-effect4770"
       is_visible="true"
       linecap_type="peak"
       line_width="0.035002168"
       linejoin_type="bevel"
       miter_limit="600"
       attempt_force_join="false" />
    <inkscape:path-effect
       effect="curvestitching"
       id="path-effect4768"
       is_visible="true"
       count="5"
       startpoint_edge_variation="0;1"
       startpoint_spacing_variation="0;1"
       endpoint_edge_variation="0;1"
       endpoint_spacing_variation="0;1"
       strokepath="M 8.9999999,271.97403 H 42.04985"
       prop_scale="1"
       scale_y_rel="false" />
    <inkscape:path-effect
       effect="taper_stroke"
       id="path-effect4762"
       is_visible="true"
       stroke_width="0.13229167"
       attach_start="0.2"
       end_offset="0.2"
       smoothing="0.5"
       jointype="extrapolated"
       miter_limit="100" />
    <inkscape:path-effect
       effect="join_type"
       id="path-effect4760"
       is_visible="true"
       linecap_type="peak"
       line_width="0.5"
       linejoin_type="extrp_arc"
       miter_limit="300"
       attempt_force_join="true" />
    <inkscape:path-effect
       effect="attach_path"
       id="path-effect4757" />
    <inkscape:path-effect
       effect="attach_path"
       id="path-effect4753" />
    <inkscape:path-effect
       effect="join_type"
       id="path-effect1041"
       is_visible="true"
       linecap_type="butt"
       line_width="0.018521979"
       linejoin_type="round"
       miter_limit="100"
       attempt_force_join="true" />
    <inkscape:path-effect
       effect="taper_stroke"
       id="path-effect833"
       is_visible="true"
       stroke_width="0.070004337"
       attach_start="0.2"
       end_offset="0.2"
       smoothing="0.5"
       jointype="round"
       miter_limit="100" />
    <inkscape:path-effect
       effect="join_type"
       id="path-effect829"
       is_visible="true"
       linecap_type="peak"
       line_width="0.26458332"
       linejoin_type="round"
       miter_limit="100"
       attempt_force_join="true" />
  </defs>
  <sodipodi:namedview
     id="base"
     pagecolor="#ffffff"
     bordercolor="#666666"
     borderopacity="1.0"
     inkscape:pageopacity="0.0"
     inkscape:pageshadow="2"
     inkscape:zoom="2.8284271"
     inkscape:cx="38.452926"
     inkscape:cy="131.06376"
     inkscape:document-units="mm"
     inkscape:current-layer="layer1"
     showgrid="false"
     inkscape:window-width="1920"
     inkscape:window-height="1017"
     inkscape:window-x="-8"
     inkscape:window-y="-8"
     inkscape:window-maximized="1"
     showguides="false"
     inkscape:measure-start="158.775,95.2446"
     inkscape:measure-end="149.584,101.887"
     inkscape:snap-bbox="false"
     inkscape:snap-intersection-paths="true"
     inkscape:snap-midpoints="true"
     inkscape:snap-object-midpoints="true">
    <sodipodi:guide
       position="42.009247,25.20013"
       orientation="-90.148611,-124.75936"
       id="guide4838"
       inkscape:locked="false" />
    <sodipodi:guide
       position="8.9999998,49.05195"
       orientation="90.806854,0"
       id="guide4840"
       inkscape:locked="false" />
    <sodipodi:guide
       position="8.9999998,0.99999037"
       orientation="-91.465096,124.75936"
       id="guide4844"
       inkscape:locked="false" />
    <sodipodi:guide
       position="8.99999,49.0519"
       inkscape:color="rgb(167,0,255)"
       inkscape:label="Mesurer"
       orientation="0.585674,0.810546"
       id="guide4856"
       inkscape:locked="false" />
    <sodipodi:guide
       position="8.99999,49.0519"
       inkscape:color="rgb(167,0,255)"
       inkscape:label=""
       orientation="-0,1"
       id="guide4860"
       inkscape:locked="false" />
    <sodipodi:guide
       position="8.99999,49.0519"
       inkscape:color="rgb(167,0,255)"
       inkscape:label="Début"
       orientation="-1,6.12303e-017"
       id="guide4862"
       inkscape:locked="false" />
    <sodipodi:guide
       position="9.00007,49.0519"
       inkscape:color="rgb(167,0,255)"
       inkscape:label="Mesurer"
       orientation="1,-1.15075e-005"
       id="guide4868"
       inkscape:locked="false" />
    <sodipodi:guide
       position="9.00007,49.0519"
       inkscape:color="rgb(167,0,255)"
       inkscape:label=""
       orientation="-0,1"
       id="guide4870"
       inkscape:locked="false" />
    <sodipodi:guide
       position="9.00007,49.0519"
       inkscape:color="rgb(167,0,255)"
       inkscape:label="Début"
       orientation="-1,6.12303e-017"
       id="guide4872"
       inkscape:locked="false" />
    <sodipodi:guide
       position="9,43.0511"
       inkscape:color="rgb(167,0,255)"
       inkscape:label=""
       orientation="-1,6.12303e-017"
       id="guide4876"
       inkscape:locked="false" />
    <sodipodi:guide
       position="18.5345,42.1625"
       inkscape:color="rgb(167,0,255)"
       inkscape:label="Mesurer"
       orientation="0.445765,-0.89515"
       inkscape:locked="false"
       id="guide4893" />
    <sodipodi:guide
       position="18.5345,42.1625"
       inkscape:color="rgb(167,0,255)"
       inkscape:label="Début"
       orientation="-1,6.12303e-017"
       inkscape:locked="false"
       id="guide4897" />
    <sodipodi:guide
       position="8.99994,37.4145"
       inkscape:color="rgb(167,0,255)"
       inkscape:label=""
       orientation="-1,6.12303e-017"
       inkscape:locked="false"
       id="guide4901" />
    <sodipodi:guide
       position="18.5345,7.99004"
       inkscape:color="rgb(167,0,255)"
       inkscape:label="Mesurer"
       orientation="-0.456213,-0.88987"
       id="guide4907"
       inkscape:locked="false" />
    <sodipodi:guide
       position="18.5345,7.99004"
       inkscape:color="rgb(167,0,255)"
       inkscape:label=""
       orientation="-0,1"
       id="guide4909"
       inkscape:locked="false" />
    <sodipodi:guide
       position="18.5345,7.99004"
       inkscape:color="rgb(167,0,255)"
       inkscape:label="Début"
       orientation="-1,6.12303e-017"
       id="guide4911"
       inkscape:locked="false" />
    <sodipodi:guide
       position="9.00007,12.8781"
       inkscape:color="rgb(167,0,255)"
       inkscape:label="Fin"
       orientation="-0,1"
       id="guide4913"
       inkscape:locked="false" />
    <sodipodi:guide
       position="9.00007,12.8781"
       inkscape:color="rgb(167,0,255)"
       inkscape:label=""
       orientation="-1,6.12303e-017"
       id="guide4915"
       inkscape:locked="false" />
    <sodipodi:guide
       position="9.00268,12.8768"
       inkscape:color="rgb(167,0,255)"
       inkscape:label="1 traversé(s)"
       orientation="0.88987,-0.456213"
       id="guide4917"
       inkscape:locked="false" />
    <sodipodi:guide
       position="42.0092,25.2001"
       inkscape:color="rgb(167,0,255)"
       inkscape:label="Mesurer"
       orientation="-0.585754,-0.810489"
       id="guide4919"
       inkscape:locked="false" />
    <sodipodi:guide
       position="42.0092,25.2001"
       inkscape:color="rgb(167,0,255)"
       inkscape:label="Début"
       orientation="-1,6.12303e-017"
       id="guide4923"
       inkscape:locked="false" />
    <sodipodi:guide
       position="39.5775,26.9576"
       inkscape:color="rgb(167,0,255)"
       inkscape:label=""
       orientation="-1,6.12303e-017"
       id="guide4927"
       inkscape:locked="false" />
  </sodipodi:namedview>
  <metadata
     id="metadata5">
    <rdf:RDF>
      <cc:Work
         rdf:about="">
        <dc:format>image/svg+xml</dc:format>
        <dc:type
           rdf:resource="http://purl.org/dc/dcmitype/StillImage" />
        <dc:title>play start</dc:title>
        <cc:license
           rdf:resource="http://creativecommons.org/licenses/by/4.0/" />
        <dc:creator>
          <cc:Agent>
            <dc:title>Vincent Majorczyk</dc:title>
          </cc:Agent>
        </dc:creator>
        <dc:date>2019 09 21</dc:date>
      </cc:Work>
      <cc:License
         rdf:about="http://creativecommons.org/licenses/by/4.0/">
        <cc:permits
           rdf:resource="http://creativecommons.org/ns#Reproduction" />
        <cc:permits
           rdf:resource="http://creativecommons.org/ns#Distribution" />
        <cc:requires
           rdf:resource="http://creativecommons.org/ns#Notice" />
        <cc:requires
           rdf:resource="http://creativecommons.org/ns#Attribution" />
        <cc:permits
           rdf:resource="http://creativecommons.org/ns#DerivativeWorks" />
      </cc:License>
    </rdf:RDF>
  </metadata>
  <g
     inkscape:label="Calque 1"
     inkscape:groupmode="layer"
     id="layer1"
     transform="translate(0,-247)">
    <path
       style="color:#000000;font-style:normal;font-variant:normal;font-weight:normal;font-stretch:normal;font-size:medium;line-height:normal;font-family:sans-serif;font-variant-ligatures:normal;font-variant-position:normal;font-variant-caps:normal;font-variant-numeric:normal;font-variant-alternates:normal;font-feature-settings:normal;text-indent:0;text-align:start;text-decoration:none;text-decoration-line:none;text-decoration-style:solid;text-decoration-color:#000000;letter-spacing:normal;word-spacing:normal;text-transform:none;writing-mode:lr-tb;direction:ltr;text-orientation:mixed;dominant-baseline:auto;baseline-shift:baseline;text-anchor:start;white-space:normal;shape-padding:0;clip-rule:nonzero;display:inline;overflow:visible;visibility:visible;opacity:1;isolation:auto;mix-blend-mode:normal;color-interpolation:sRGB;color-interpolation-filters:linearRGB;solid-color:#000000;solid-opacity:1;vector-effect:none;fill:#000000;fill-opacity:1;fill-rule:nonzero;stroke:none;stroke-width:12;stroke-linecap:butt;stroke-linejoin:round;stroke-miterlimit:4;stroke-dasharray:none;stroke-dashoffset:0;stroke-opacity:1;color-rendering:auto;image-rendering:auto;shape-rendering:auto;text-rendering:auto;enable-background:accumulate"
       d="m 16.747815,253.69313 a 6.0005999,6.0005999 0 0 0 -6.156213,5.99808 l -0.0021,24.47293 a 6.0005999,6.0005999 0 0 0 9.544637,4.84156 L 36.95275,276.69328 a 6.0005999,6.0005999 0 0 0 -0.02739,-9.70329 L 20.106784,254.83001 a 6.0005999,6.0005999 0 0 0 -3.358969,-1.13688 z"
       id="path6223"
       inkscape:connector-curvature="0" />
    <path
       style="color:#000000;font-style:normal;font-variant:normal;font-weight:normal;font-stretch:normal;font-size:medium;line-height:normal;font-family:sans-serif;font-variant-ligatures:normal;font-variant-position:normal;font-variant-caps:normal;font-variant-numeric:normal;font-variant-alternates:normal;font-feature-settings:normal;text-indent:0;text-align:start;text-decoration:none;text-decoration-line:none;text-decoration-style:solid;text-decoration-color:#000000;letter-spacing:normal;word-spacing:normal;text-transform:none;writing-mode:lr-tb;direction:ltr;text-orientation:mixed;dominant-baseline:auto;baseline-shift:baseline;text-anchor:start;white-space:normal;shape-padding:0;clip-rule:nonzero;display:inline;overflow:visible;visibility:visible;opacity:1;isolation:auto;mix-blend-mode:normal;color-interpolation:sRGB;color-interpolation-filters:linearRGB;solid-color:#000000;solid-opacity:1;vector-effect:none;fill:#afe9af;fill-opacity:1;fill-rule:nonzero;stroke:none;stroke-width:12;stroke-linecap:butt;stroke-linejoin:round;stroke-miterlimit:4;stroke-dasharray:none;stroke-dashoffset:0;stroke-opacity:1;color-rendering:auto;image-rendering:auto;shape-rendering:auto;text-rendering:auto;enable-background:accumulate"
       d="m 16.690971,255.8222 c -2.058903,-0.0522 -3.970634,1.80932 -3.970817,3.86901 l -0.0015,24.47293 c 4.8e-5,1.42116 0.853382,2.8101 2.120801,3.45302 1.267419,0.64291 2.890202,0.50921 4.036963,-0.33022 L 35.69503,274.97452 c 0.9804,-0.71781 1.587307,-1.91755 1.583881,-3.13263 -0.0034,-1.21509 -0.617022,-2.41466 -1.601452,-3.12694 L 18.858798,256.55446 c -0.626783,-0.45343 -1.392444,-0.71154 -2.16576,-0.73226 z"
       id="path6235"
       inkscape:connector-curvature="0" />
  </g>
</svg>
